sim/waves/ooo_top.vcd
$date
	Sun Jun 21 14:28:14 2026
$end
$version
	Icarus Verilog
$end
$timescale
	1ps
$end
$scope module tb_ooo_top $end
$var wire 1 ! rs_full_w $end
$var wire 1 " rob_full_w $end
$var wire 1 # pipeline_busy $end
$var wire 1 $ instr_ready $end
$var wire 1 % commit_valid $end
$var wire 4 & commit_tag [3:0] $end
$var wire 5 ' commit_rd [4:0] $end
$var wire 32 ( commit_data [31:0] $end
$var parameter 32 ) AW $end
$var parameter 32 * CLK $end
$var parameter 32 + DW $end
$var parameter 32 , MAX_COMMITS $end
$var parameter 32 - MAX_INSTRS $end
$var parameter 32 . TIMEOUT_NS $end
$var parameter 32 / TW $end
$var reg 1 0 clk $end
$var reg 1 1 flush $end
$var reg 32 2 instr [31:0] $end
$var reg 1 3 instr_valid $end
$var reg 1 4 rst_n $end
$var integer 32 5 errors [31:0] $end
$var integer 32 6 si [31:0] $end
$var integer 32 7 total_commits [31:0] $end
$scope function enc $end
$var reg 3 8 op [2:0] $end
$var reg 5 9 rd [4:0] $end
$var reg 5 : rs1 [4:0] $end
$var reg 5 ; rs2 [4:0] $end
$upscope $end
$scope module dut $end
$var wire 1 0 clk $end
$var wire 1 < commit_ack $end
$var wire 32 = commit_data [31:0] $end
$var wire 5 > commit_rd [4:0] $end
$var wire 4 ? commit_tag [3:0] $end
$var wire 1 % commit_valid $end
$var wire 1 @ dispatch_en $end
$var wire 1 1 flush $end
$var wire 32 A instr [31:0] $end
$var wire 1 $ instr_ready $end
$var wire 1 3 instr_valid $end
$var wire 1 # pipeline_busy $end
$var wire 1 4 rst_n $end
$var wire 1 ! rs_full $end
$var wire 1 B rs_empty $end
$var wire 1 " rob_full $end
$var wire 1 C rob_empty_w $end
$var wire 4 D rat_rs2_tag [3:0] $end
$var wire 1 E rat_rs2_ready $end
$var wire 32 F rat_rs2_data [31:0] $end
$var wire 4 G rat_rs1_tag [3:0] $end
$var wire 1 H rat_rs1_ready $end
$var wire 32 I rat_rs1_data [31:0] $end
$var wire 1 J issue_valid_w $end
$var wire 4 K issue_tag_w [3:0] $end
$var wire 32 L issue_src2_w [31:0] $end
$var wire 32 M issue_src1_w [31:0] $end
$var wire 3 N issue_opcode_w [2:0] $end
$var wire 5 O dec_rs2 [4:0] $end
$var wire 5 P dec_rs1 [4:0] $end
$var wire 5 Q dec_rd [4:0] $end
$var wire 3 R dec_opcode [2:0] $end
$var wire 1 S commit_valid_i $end
$var wire 4 T commit_tag_i [3:0] $end
$var wire 5 U commit_rd_i [4:0] $end
$var wire 32 V commit_data_i [31:0] $end
$var wire 1 W cdb_valid $end
$var wire 4 X cdb_tag [3:0] $end
$var wire 1 Y cdb_req_valid $end
$var wire 4 Z cdb_req_tag [3:0] $end
$var wire 32 [ cdb_req_data [31:0] $end
$var wire 32 \ cdb_data [31:0] $end
$var wire 4 ] alloc_tag [3:0] $end
$var parameter 32 ^ AW $end
$var parameter 32 _ DW $end
$var parameter 32 ` NR $end
$var parameter 32 a ROB_DEPTH $end
$var parameter 32 b RS_DEPTH $end
$var parameter 32 c TW $end
$scope module u_alu $end
$var wire 1 0 clk $end
$var wire 1 1 flush $end
$var wire 1 4 rst_n $end
$var wire 32 d s1_src1_s [31:0] $end
$var wire 32 e s1_src2_s [31:0] $end
$var wire 64 f mul_result [63:0] $end
$var wire 1 J issue_valid $end
$var wire 4 g issue_tag [3:0] $end
$var wire 32 h issue_src2 [31:0] $end
$var wire 32 i issue_src1 [31:0] $end
$var wire 3 j issue_opcode [2:0] $end
$var parameter 32 k DW $end
$var parameter 32 l OW $end
$var parameter 32 m TW $end
$var reg 32 n cdb_req_data [31:0] $end
$var reg 4 o cdb_req_tag [3:0] $end
$var reg 1 Y cdb_req_valid $end
$var reg 3 p s1_opcode [2:0] $end
$var reg 32 q s1_src1 [31:0] $end
$var reg 32 r s1_src2 [31:0] $end
$var reg 4 s s1_tag [3:0] $end
$var reg 1 t s1_valid $end
$var reg 32 u s2_result_c [31:0] $end
$upscope $end
$scope module u_cdb $end
$var wire 32 v cdb_data [31:0] $end
$var wire 4 w cdb_tag [3:0] $end
$var wire 1 W cdb_valid $end
$var wire 32 x fu0_data [31:0] $end
$var wire 4 y fu0_tag [3:0] $end
$var wire 1 Y fu0_valid $end
$var parameter 32 z DW $end
$var parameter 32 { NUM_FU $end
$var parameter 32 | TW $end
$upscope $end
$scope module u_rat $end
$var wire 32 } cdb_data [31:0] $end
$var wire 4 ~ cdb_tag [3:0] $end
$var wire 1 W cdb_valid $end
$var wire 1 0 clk $end
$var wire 1 1 flush $end
$var wire 5 !" rename_rd [4:0] $end
$var wire 1 @ rename_valid $end
$var wire 5 "" rs1_addr [4:0] $end
$var wire 1 #" rs1_cdb_hit $end
$var wire 1 H rs1_ready $end
$var wire 4 $" rs1_tag [3:0] $end
$var wire 5 %" rs2_addr [4:0] $end
$var wire 1 &" rs2_cdb_hit $end
$var wire 1 E rs2_ready $end
$var wire 4 '" rs2_tag [3:0] $end
$var wire 1 4 rst_n $end
$var wire 32 (" rs2_data [31:0] $end
$var wire 32 )" rs1_data [31:0] $end
$var wire 4 *" rename_tag [3:0] $end
$var wire 1 S commit_valid $end
$var wire 4 +" commit_tag [3:0] $end
$var wire 5 ," commit_rd [4:0] $end
$var wire 32 -" commit_data [31:0] $end
$var parameter 32 ." AW $end
$var parameter 32 /" DW $end
$var parameter 32 0" NR $end
$var parameter 32 1" TW $end
$var integer 32 2" r [31:0] $end
$upscope $end
$scope module u_rob $end
$var wire 3 3" alloc_opcode [2:0] $end
$var wire 5 4" alloc_rd [4:0] $end
$var wire 4 5" alloc_tag [3:0] $end
$var wire 1 @ alloc_valid $end
$var wire 1 0 clk $end
$var wire 1 < commit_ack $end
$var wire 32 6" commit_data [31:0] $end
$var wire 5 7" commit_rd [4:0] $end
$var wire 4 8" commit_tag [3:0] $end
$var wire 1 S commit_valid $end
$var wire 32 9" complete_data [31:0] $end
$var wire 4 :" complete_tag [3:0] $end
$var wire 1 W complete_valid $end
$var wire 1 1 flush $end
$var wire 1 " rob_full $end
$var wire 1 4 rst_n $end
$var wire 1 C rob_empty $end
$var parameter 32 ;" AW $end
$var parameter 32 <" DEPTH $end
$var parameter 32 =" DW $end
$var parameter 32 >" OW $end
$var parameter 32 ?" TW $end
$var reg 4 @" rob_head [3:0] $end
$var reg 4 A" rob_tail [3:0] $end
$var integer 32 B" r [31:0] $end
$upscope $end
$scope module u_rs $end
$var wire 32 C" cdb_data [31:0] $end
$var wire 4 D" cdb_tag [3:0] $end
$var wire 1 W cdb_valid $end
$var wire 1 0 clk $end
$var wire 4 E" dispatch_dest_tag [3:0] $end
$var wire 3 F" dispatch_opcode [2:0] $end
$var wire 5 G" dispatch_rd [4:0] $end
$var wire 5 H" dispatch_rs1 [4:0] $end
$var wire 5 I" dispatch_rs2 [4:0] $end
$var wire 32 J" dispatch_s1_data [31:0] $end
$var wire 1 H dispatch_s1_rdy $end
$var wire 4 K" dispatch_s1_tag [3:0] $end
$var wire 32 L" dispatch_s2_data [31:0] $end
$var wire 1 E dispatch_s2_rdy $end
$var wire 4 M" dispatch_s2_tag [3:0] $end
$var wire 1 @ dispatch_valid $end
$var wire 1 1 flush $end
$var wire 1 N" fu_ready $end
$var wire 3 O" issue_opcode [2:0] $end
$var wire 4 P" issue_tag [3:0] $end
$var wire 1 J issue_valid $end
$var wire 1 4 rst_n $end
$var wire 1 Q" s1_via_cdb $end
$var wire 1 R" s2_via_cdb $end
$var wire 1 ! rs_full $end
$var wire 1 B rs_empty $end
$var wire 32 S" issue_src2 [31:0] $end
$var wire 32 T" issue_src1 [31:0] $end
$var parameter 32 U" AW $end
$var parameter 32 V" DW $end
$var parameter 32 W" IDX_W $end
$var parameter 32 X" OW $end
$var parameter 32 Y" RS_DEPTH $end
$var parameter 32 Z" SEQW $end
$var parameter 32 [" TW $end
$var reg 8 \" dispatch_seq [7:0] $end
$var reg 1 ]" free_found $end
$var reg 3 ^" free_idx [2:0] $end
$var reg 3 _" issue_idx [2:0] $end
$var reg 1 `" issue_valid_c $end
$var reg 8 a" min_seq [7:0] $end
$var reg 1 B rs_empty_c $end
$var integer 32 b" i [31:0] $end
$var integer 32 c" k [31:0] $end
$var integer 32 d" m [31:0] $end
$var integer 32 e" n [31:0] $end
$scope begin g_rdy[0] $end
$var parameter 2 f" gi $end
$upscope $end
$scope begin g_rdy[1] $end
$var parameter 2 g" gi $end
$upscope $end
$scope begin g_rdy[2] $end
$var parameter 3 h" gi $end
$upscope $end
$scope begin g_rdy[3] $end
$var parameter 3 i" gi $end
$upscope $end
$scope begin g_rdy[4] $end
$var parameter 4 j" gi $end
$upscope $end
$scope begin g_rdy[5] $end
$var parameter 4 k" gi $end
$upscope $end
$scope begin g_rdy[6] $end
$var parameter 4 l" gi $end
$upscope $end
$scope begin g_rdy[7] $end
$var parameter 4 m" gi $end
$upscope $end
$upscope $end
$upscope $end
$scope begin file_test $end
$var reg 32 n" encoded [31:0] $end
$var integer 32 o" c_before [31:0] $end
$var integer 32 p" fp [31:0] $end
$var integer 32 q" n_exp_commits [31:0] $end
$var integer 32 r" n_instr [31:0] $end
$var integer 32 s" op_i [31:0] $end
$var integer 32 t" rd_i [31:0] $end
$var integer 32 u" rs1_i [31:0] $end
$var integer 32 v" rs2_i [31:0] $end
$var integer 32 w" scan_ok [31:0] $end
$upscope $end
$scope begin flush_test $end
$var integer 32 x" c0 [31:0] $end
$upscope $end
$scope begin ipc_test $end
$var integer 32 y" c0 [31:0] $end
$var integer 32 z" end_cyc [31:0] $end
$var integer 32 {" num_i [31:0] $end
$var integer 32 |" start_cyc [31:0] $end
$upscope $end
$scope begin raw_test $end
$var integer 32 }" c0 [31:0] $end
$upscope $end
$scope begin waw_test $end
$var integer 32 ~" c0 [31:0] $end
$upscope $end
$scope task drain $end
$upscope $end
$scope task drive_instr $end
$var reg 32 !# i [31:0] $end
$upscope $end
$upscope $end
$enddefinitions $end
$comment Show the parameter values. $end
$dumpall
b111 m"
b110 l"
b101 k"
b100 j"
b11 i"
b10 h"
b1 g"
b0 f"
b100 ["
b1000 Z"
b1000 Y"
b11 X"
b11 W"
b100000 V"
b101 U"
b100 ?"
b11 >"
b100000 ="
b10000 <"
b101 ;"
b100 1"
b100000 0"
b100000 /"
b101 ."
b100 |
b1 {
b100000 z
b100 m
b11 l
b100000 k
b100 c
b1000 b
b10000 a
b100000 `
b100000 _
b101 ^
b100 /
b10011000100101101000000 .
b100000000 -
b1000000000 ,
b100000 +
b1010 *
b101 )
$end
#0
$dumpvars
bx !#
bx ~"
bx }"
bx |"
bx {"
bx z"
bx y"
bx x"
bx w"
bx v"
bx u"
bx t"
bx s"
bx r"
bx q"
bx p"
bx o"
bx n"
bx e"
bx d"
bx c"
bx b"
bx a"
x`"
bx _"
bx ^"
x]"
bx \"
bx T"
bx S"
xR"
xQ"
bx P"
bx O"
1N"
bx M"
bx L"
bx K"
bx J"
b0 I"
b0 H"
b0 G"
b0 F"
bx E"
bx D"
bx C"
bx B"
bx A"
bx @"
bx :"
bx 9"
bx 8"
bx 7"
bx 6"
bx 5"
b0 4"
b0 3"
bx 2"
bx -"
bx ,"
bx +"
bx *"
bx )"
bx ("
bx '"
x&"
b0 %"
bx $"
x#"
b0 ""
b0 !"
bx ~
bx }
bx y
bx x
bx w
bx v
bx u
xt
bx s
bx r
bx q
bx p
bx o
bx n
bx j
bx i
bx h
bx g
bx f
bx e
bx d
bx ]
bx \
bx [
bx Z
xY
bx X
xW
bx V
bx U
bx T
xS
b0 R
b0 Q
b0 P
b0 O
bx N
bx M
bx L
bx K
xJ
bx I
xH
bx G
bx F
xE
bx D
xC
xB
b0 A
0@
bx ?
bx >
bx =
x<
bx ;
bx :
bx 9
bx 8
b0 7
b100000 6
b0 5
04
03
b0 2
01
00
bx (
bx '
bx &
x%
x$
x#
x"
x!
$end
#5000
0J
b0 M
b0 i
b0 T"
b0 L
b0 h
b0 S"
0#
1$
0Q"
0R"
1H
1E
0#"
0&"
b1000 c"
b11111111 a"
0`"
b0 N
b0 j
b0 O"
b0 K
b0 g
b0 P"
b0 _"
b1000 e"
1B
b11111111111111111111111111111111 d"
0!
1]"
b0 ^"
0%
0<
0S
b0 u
b0 I
b0 )"
b0 J"
b0 F
b0 ("
b0 L"
b0 G
b0 $"
b0 K"
b0 D
b0 '"
b0 M"
b0 \"
b0 (
b0 =
b0 V
b0 -"
b0 6"
b0 '
b0 >
b0 U
b0 ,"
b0 7"
0"
1C
b0 ]
b0 *"
b0 5"
b0 E"
b0 A"
b0 &
b0 ?
b0 T
b0 +"
b0 8"
b0 @"
b0 s
b0 f
b0 e
b0 r
b0 d
b0 q
b0 p
0t
b0 \
b0 v
b0 }
b0 9"
b0 C"
b0 [
b0 n
b0 x
b0 X
b0 w
b0 ~
b0 :"
b0 D"
b0 Z
b0 o
b0 y
0W
0Y
b100000 2"
b1000 b"
b10000 B"
10
#10000
00
#15000
b10000 B"
b1000 b"
b100000 2"
10
#20000
00
#25000
b100000 2"
b1000 b"
b10000 B"
10
#30000
00
#35000
14
b10000 B"
b1000 b"
b100000 2"
10
#40000
00
#45000
10
#50000
00
#55000
1@
b1 Q
b1 !"
b1 4"
b1 G"
13
b1000000000000000000000000000 2
b1000000000000000000000000000 A
b1000000000000000000000000000 !#
b1 9
b0 :
b0 ;
b0 8
b0 }"
10
#60000
00
#65000
1J
1`"
b0 a"
b1000 c"
b11111111111111111111111111111111 d"
0!
1]"
b1 ^"
0B
b1000 e"
1#
b1 \"
b1 ]
b1 *"
b1 5"
b1 E"
b1 A"
b1 '
b1 >
b1 U
b1 ,"
b1 7"
0"
0C
10
#66000
0H
b10 Q
b10 !"
b10 4"
b10 G"
b1 P
b1 ""
b1 H"
b10000010000000000000000000000 2
b10000010000000000000000000000 A
b10000010000000000000000000000 !#
b10 9
b1 :
13
#70000
00
#75000
0J
b1000 c"
b11111111 a"
0`"
b1000 e"
0B
b11111111111111111111111111111111 d"
0!
1]"
b0 ^"
1t
b10 ]
b10 *"
b10 5"
b10 E"
b10 A"
0"
b10 \"
10
#76000
b11 Q
b11 !"
b11 4"
b11 G"
b1 G
b1 $"
b1 K"
b10 P
b10 ""
b10 H"
b11000100000000000000000000000 2
b11000100000000000000000000000 A
b11000100000000000000000000000 !#
b11 9
b10 :
13
#80000
00
#85000
1Q"
b1 _"
1J
1`"
b1 a"
b1000 c"
b11111111111111111111111111111111 d"
0!
1]"
b10 ^"
b1000 e"
0B
b11 \"
b1 K
b1 g
b1 P"
b11 ]
b11 *"
b11 5"
b11 E"
b11 A"
0"
0t
1W
1Y
10
#86000
b100 Q
b100 !"
b100 4"
b100 G"
b10 G
b10 $"
b10 K"
b11 P
b11 ""
b11 H"
b100000110000000000000000000000 2
b100000110000000000000000000000 A
b100000110000000000000000000000 !#
b100 9
b11 :
13
#90000
00
#95000
0J
0Q"
1%
1<
1S
b1000 c"
b11111111 a"
0`"
b10 K
b10 g
b10 P"
b0 _"
b1000 e"
0B
b11111111111111111111111111111111 d"
0!
1]"
b1 ^"
0W
0Y
b1 s
1t
b100 ]
b100 *"
b100 5"
b100 E"
b100 A"
0"
b100 \"
b1000 b"
b100000 2"
10
#96000
b101 Q
b101 !"
b101 4"
b101 G"
b11 G
b11 $"
b11 K"
b100 P
b100 ""
b100 H"
b101001000000000000000000000000 2
b101001000000000000000000000000 A
b101001000000000000000000000000 !#
b101 9
b100 :
13
#100000
00
#105000
1J
1`"
b10 K
b10 g
b10 P"
b0 _"
b10 a"
b1000 c"
b11111111111111111111111111111111 d"
0!
1]"
b11 ^"
b1000 e"
0B
0%
0<
0S
1Q"
b101 \"
b10 '
b10 >
b10 U
b10 ,"
b10 7"
b1 &
b1 ?
b1 T
b1 +"
b1 8"
b1 @"
0C
b101 ]
b101 *"
b101 5"
b101 E"
b101 A"
0"
b10 s
0t
b1 X
b1 w
b1 ~
b1 :"
b1 D"
b1 Z
b1 o
b1 y
1W
1Y
b1 7
10
#106000
0@
03
#110000
00
#115000
b10 K
b10 g
b10 P"
b0 _"
0J
b1000 c"
b11111111 a"
0`"
0Q"
1%
1<
1S
b1000 e"
0B
b11111111111111111111111111111111 d"
0!
1]"
b0 ^"
b10 X
b10 w
b10 ~
b10 :"
b10 D"
b10 Z
b10 o
b10 y
0W
0Y
1t
b1000 b"
b100000 2"
10
#120000
00
#125000
1Q"
1J
1`"
b11 K
b11 g
b11 P"
b10 _"
b11 a"
b1000 c"
0%
0<
0S
b11 '
b11 >
b11 U
b11 ,"
b11 7"
b10 &
b10 ?
b10 T
b10 +"
b10 8"
b10 @"
0C
0t
1W
1Y
b10 7
10
#130000
00
#135000
0J
b1000 c"
b11111111 a"
0`"
b10 K
b10 g
b10 P"
b0 _"
0Q"
1%
1<
1S
b11111111111111111111111111111111 d"
0!
1]"
b0 ^"
b1000 e"
0B
0W
0Y
b11 s
1t
b1000 b"
b100000 2"
10
#140000
00
#145000
1Q"
1J
1`"
b100 K
b100 g
b100 P"
b1 _"
b100 a"
b1000 c"
1H
0%
0<
0S
1#"
b100 '
b100 >
b100 U
b100 ,"
b100 7"
b11 &
b11 ?
b11 T
b11 +"
b11 8"
b11 @"
0C
b10 s
0t
b11 X
b11 w
b11 ~
b11 :"
b11 D"
b11 Z
b11 o
b11 y
1W
1Y
b11 7
10
#150000
00
#155000
0J
b1000 c"
b11111111 a"
0`"
b10 K
b10 g
b10 P"
b0 _"
0H
0#"
0Q"
1%
1<
1S
b1000 e"
1B
b11111111111111111111111111111111 d"
0!
1]"
b0 ^"
b10 X
b10 w
b10 ~
b10 :"
b10 D"
b10 Z
b10 o
b10 y
0W
0Y
b100 s
1t
b1000 b"
b100000 2"
10
#160000
00
#165000
1H
0%
0<
0S
b101 '
b101 >
b101 U
b101 ,"
b101 7"
b100 &
b100 ?
b100 T
b100 +"
b100 8"
b100 @"
0C
b10 s
0t
b100 X
b100 w
b100 ~
b100 :"
b100 D"
b100 Z
b100 o
b100 y
1W
1Y
b100 7
10
#170000
00
#175000
1%
1<
1S
b10 X
b10 w
b10 ~
b10 :"
b10 D"
b10 Z
b10 o
b10 y
0W
0Y
b1000 b"
b100000 2"
10
#180000
00
#185000
0#
0%
0<
0S
b0 '
b0 >
b0 U
b0 ,"
b0 7"
b101 &
b101 ?
b101 T
b101 +"
b101 8"
b101 @"
1C
b101 7
10
#190000
00
#195000
10
#200000
00
#205000
10
#210000
00
#215000
10
#220000
00
#225000
10
#230000
00
#235000
1@
b110 Q
b110 !"
b110 4"
b110 G"
b0 G
b0 $"
b0 K"
b0 P
b0 ""
b0 H"
13
b110000000000000000000000000000 2
b110000000000000000000000000000 A
b110000000000000000000000000000 !#
b110 9
b0 :
b101 ~"
10
#240000
00
#245000
1J
1`"
b101 a"
b1000 c"
b11111111111111111111111111111111 d"
0!
1]"
b1 ^"
0B
b1000 e"
1#
b110 \"
b101 K
b101 g
b101 P"
b110 ]
b110 *"
b110 5"
b110 E"
b110 A"
b110 '
b110 >
b110 U
b110 ,"
b110 7"
0"
0C
10
#246000
b1 R
b1 3"
b1 F"
b110000000000000100000000000000 2
b110000000000000100000000000000 A
b110000000000000100000000000000 !#
b1 8
13
#250000
00
#255000
b1 N
b1 j
b1 O"
b110 K
b110 g
b110 P"
b1 _"
b1000 c"
b110 a"
1`"
b1000 e"
0B
b11111111111111111111111111111111 d"
0!
1]"
b0 ^"
b101 s
1t
b111 ]
b111 *"
b111 5"
b111 E"
b111 A"
0"
b111 \"
10
#256000
0H
b111 Q
b111 !"
b111 4"
b111 G"
b110 G
b110 $"
b110 K"
b110 P
b110 ""
b110 H"
b0 R
b0 3"
b0 F"
b111001100000000000000000000000 2
b111001100000000000000000000000 A
b111001100000000000000000000000 !#
b111 9
b110 :
b0 8
13
#260000
00
#265000
0J
b1000 c"
b11111111 a"
0`"
b0 N
b0 j
b0 O"
b111 K
b111 g
b111 P"
b0 _"
b11111111111111111111111111111111 d"
0!
1]"
b1 ^"
b1000 e"
0B
b1000 \"
b1000 ]
b1000 *"
b1000 5"
b1000 E"
b1000 A"
0"
b110 s
b1 p
b101 X
b101 w
b101 ~
b101 :"
b101 D"
b101 Z
b101 o
b101 y
1W
1Y
10
#266000
0@
03
#270000
00
#275000
1J
1`"
b111 a"
b1000 c"
1H
1#"
1Q"
1%
1<
1S
b110 X
b110 w
b110 ~
b110 :"
b110 D"
b110 Z
b110 o
b110 y
b111 s
b0 p
0t
b1000 b"
b100000 2"
10
#280000
00
#285000
0J
b1000 c"
b11111111 a"
0`"
0H
b1000 e"
1B
b11111111111111111111111111111111 d"
0!
1]"
b0 ^"
0#"
0Q"
b110 &
b110 ?
b110 T
b110 +"
b110 8"
b110 @"
0C
1t
b111 X
b111 w
b111 ~
b111 :"
b111 D"
b111 Z
b111 o
b111 y
0W
0Y
b100000 2"
b1000 b"
b110 7
10
#290000
00
#295000
0%
0<
0S
1H
1W
1Y
0t
b111 '
b111 >
b111 U
b111 ,"
b111 7"
b111 &
b111 ?
b111 T
b111 +"
b111 8"
b111 @"
0C
b111 7
10
#300000
00
#305000
1%
1<
1S
0W
0Y
b100000 2"
b1000 b"
10
#310000
00
#315000
0#
0%
0<
0S
b0 '
b0 >
b0 U
b0 ,"
b0 7"
b1000 &
b1000 ?
b1000 T
b1000 +"
b1000 8"
b1000 @"
1C
b1000 7
10
#320000
00
#325000
10
#330000
00
#335000
10
#340000
00
#345000
10
#350000
00
#355000
10
#360000
00
#365000
1@
b1000 Q
b1000 !"
b1000 4"
b1000 G"
b0 G
b0 $"
b0 K"
b0 P
b0 ""
b0 H"
13
b1000000000000000000000000000000 2
b1000000000000000000000000000000 A
b1000000000000000000000000000000 !#
b1000 9
b0 :
b100100 |"
b1000 y"
b1000 {"
10
#370000
00
#375000
1J
1`"
b1000 a"
1#
b1000 c"
b11111111111111111111111111111111 d"
0!
1]"
b1 ^"
0B
b1000 e"
b1001 ]
b1001 *"
b1001 5"
b1001 E"
b1001 A"
b1000 '
b1000 >
b1000 U
b1000 ,"
b1000 7"
0"
0C
b1001 \"
b1000 K
b1000 g
b1000 P"
10
#376000
13
#380000
00
#385000
b1001 K
b1001 g
b1001 P"
b1 _"
b1000 c"
b1001 a"
1`"
b1000 e"
0B
b11111111111111111111111111111111 d"
0!
1]"
b0 ^"
b1010 \"
b1010 ]
b1010 *"
b1010 5"
b1010 E"
b1010 A"
0"
b1000 s
1t
10
#386000
13
#390000
00
#395000
b1000 c"
b1010 a"
1`"
b1010 K
b1010 g
b1010 P"
b0 _"
b11111111111111111111111111111111 d"
0!
1]"
b1 ^"
b1000 e"
0B
b1000 X
b1000 w
b1000 ~
b1000 :"
b1000 D"
b1000 Z
b1000 o
b1000 y
1W
1Y
b1001 s
b1011 ]
b1011 *"
b1011 5"
b1011 E"
b1011 A"
0"
b1011 \"
10
#396000
13
#400000
00
#405000
b1011 K
b1011 g
b1011 P"
b1 _"
b1000 c"
b1011 a"
1`"
b1000 e"
0B
b11111111111111111111111111111111 d"
0!
1]"
b0 ^"
1%
1<
1S
b1100 \"
b1100 ]
b1100 *"
b1100 5"
b1100 E"
b1100 A"
0"
b1010 s
b1001 X
b1001 w
b1001 ~
b1001 :"
b1001 D"
b1001 Z
b1001 o
b1001 y
b100000 2"
b1000 b"
10
#406000
13
#410000
00
#415000
b1000 c"
b1100 a"
1`"
b1100 K
b1100 g
b1100 P"
b0 _"
b11111111111111111111111111111111 d"
0!
1]"
b1 ^"
b1000 e"
0B
b1010 X
b1010 w
b1010 ~
b1010 :"
b1010 D"
b1010 Z
b1010 o
b1010 y
b1011 s
b1001 &
b1001 ?
b1001 T
b1001 +"
b1001 8"
b1001 @"
0C
b1101 ]
b1101 *"
b1101 5"
b1101 E"
b1101 A"
0"
b1101 \"
b1001 7
b1000 b"
b100000 2"
10
#416000
13
#420000
00
#425000
b1101 K
b1101 g
b1101 P"
b1 _"
b1000 c"
b1101 a"
1`"
b1000 e"
0B
b11111111111111111111111111111111 d"
0!
1]"
b0 ^"
b1110 \"
b1010 &
b1010 ?
b1010 T
b1010 +"
b1010 8"
b1010 @"
0C
b1110 ]
b1110 *"
b1110 5"
b1110 E"
b1110 A"
0"
b1100 s
b1011 X
b1011 w
b1011 ~
b1011 :"
b1011 D"
b1011 Z
b1011 o
b1011 y
b100000 2"
b1000 b"
b1010 7
10
#426000
13
#430000
00
#435000
b1000 c"
b1110 a"
1`"
b1110 K
b1110 g
b1110 P"
b0 _"
b11111111111111111111111111111111 d"
0!
1]"
b1 ^"
b1000 e"
0B
b1100 X
b1100 w
b1100 ~
b1100 :"
b1100 D"
b1100 Z
b1100 o
b1100 y
b1101 s
b1011 &
b1011 ?
b1011 T
b1011 +"
b1011 8"
b1011 @"
0C
b1111 ]
b1111 *"
b1111 5"
b1111 E"
b1111 A"
0"
b1111 \"
b1011 7
b1000 b"
b100000 2"
10
#436000
13
#440000
00
#445000
b1111 K
b1111 g
b1111 P"
b1 _"
b1000 c"
b1111 a"
1`"
b1000 e"
0B
b11111111111111111111111111111111 d"
0!
1]"
b0 ^"
b10000 \"
b1100 &
b1100 ?
b1100 T
b1100 +"
b1100 8"
b1100 @"
0C
b0 ]
b0 *"
b0 5"
b0 E"
b0 A"
0"
b1110 s
b1101 X
b1101 w
b1101 ~
b1101 :"
b1101 D"
b1101 Z
b1101 o
b1101 y
b100000 2"
b1000 b"
b1100 7
10
#446000
0@
03
#450000
00
#455000
0J
b1000 c"
b11111111 a"
0`"
b1110 K
b1110 g
b1110 P"
b0 _"
b11111111111111111111111111111111 d"
0!
1]"
b0 ^"
b1000 e"
1B
b1110 X
b1110 w
b1110 ~
b1110 :"
b1110 D"
b1110 Z
b1110 o
b1110 y
b1111 s
b1101 &
b1101 ?
b1101 T
b1101 +"
b1101 8"
b1101 @"
0C
b1101 7
b1000 b"
b100000 2"
10
#460000
00
#465000
b1110 &
b1110 ?
b1110 T
b1110 +"
b1110 8"
b1110 @"
0C
b1110 s
0t
b1111 X
b1111 w
b1111 ~
b1111 :"
b1111 D"
b1111 Z
b1111 o
b1111 y
b100000 2"
b1000 b"
b1110 7
10
#470000
00
#475000
b1110 X
b1110 w
b1110 ~
b1110 :"
b1110 D"
b1110 Z
b1110 o
b1110 y
0W
0Y
b1111 &
b1111 ?
b1111 T
b1111 +"
b1111 8"
b1111 @"
0C
b1111 7
b1000 b"
b100000 2"
10
#480000
00
#485000
0#
0%
0<
0S
b1 '
b1 >
b1 U
b1 ,"
b1 7"
b0 &
b0 ?
b0 T
b0 +"
b0 8"
b0 @"
1C
b10000 7
10
#490000
00
#495000
10
#500000
00
#505000
10
#510000
00
#515000
10
#520000
00
#525000
10
#530000
00
#535000
1@
b1001 Q
b1001 !"
b1001 4"
b1001 G"
b1001000000000000000000000000000 2
b1001000000000000000000000000000 A
b1001 9
13
b10000 x"
b110101 z"
10
#540000
00
#545000
1J
1`"
b10000 a"
b1000 c"
0B
b1000 e"
b11111111111111111111111111111111 d"
0!
1]"
b1 ^"
1#
b10001 \"
b0 K
b0 g
b0 P"
b1 ]
b1 *"
b1 5"
b1 E"
b1 A"
b1001 '
b1001 >
b1001 U
b1001 ,"
b1001 7"
0"
0C
10
#546000
b1010 Q
b1010 !"
b1010 4"
b1010 G"
b10 R
b10 3"
b10 F"
b1010000000000001000000000000000 2
b1010000000000001000000000000000 A
b1010 9
b10 8
#550000
00
#555000
b10 N
b10 j
b10 O"
b1 K
b1 g
b1 P"
b1 _"
b1000 c"
b10001 a"
1`"
b11111111111111111111111111111111 d"
0!
1]"
b0 ^"
b1000 e"
0B
b0 s
1t
b10 ]
b10 *"
b10 5"
b10 E"
b10 A"
0"
b10010 \"
10
#556000
0@
11
03
#560000
00
#565000
0J
b1000 c"
b11111111 a"
0`"
b0 N
b0 j
b0 O"
b0 K
b0 g
b0 P"
b0 _"
0#
b1000 e"
1B
b11111111111111111111111111111111 d"
0!
1]"
b0 ^"
b0 \"
1C
0"
b0 ]
b0 *"
b0 5"
b0 E"
b0 A"
0t
b0 X
b0 w
b0 ~
b0 :"
b0 D"
b0 Z
b0 o
b0 y
b100000 2"
b1000 b"
b10000 B"
10
#566000
01
#570000
00
#575000
10
#580000
00
#585000
10
#590000
00
#595000
10
#600000
00
#605000
10
#610000
00
#615000
10
#620000
00
#625000
10
#630000
00
#635000
10
#640000
00
#645000
1@
b1011 Q
b1011 !"
b1011 4"
b1011 G"
b0 R
b0 3"
b0 F"
13
b1011000000000000000000000000000 2
b1011000000000000000000000000000 A
b1011000000000000000000000000000 !#
b1011 9
b0 8
10
#650000
00
#655000
1J
1`"
b0 a"
1#
b1000 c"
b11111111111111111111111111111111 d"
0!
1]"
b1 ^"
0B
b1000 e"
b1 ]
b1 *"
b1 5"
b1 E"
b1 A"
b1011 '
b1011 >
b1011 U
b1011 ,"
b1011 7"
0"
0C
b1 \"
10
#656000
0@
03
#660000
00
#665000
0J
b1000 c"
b11111111 a"
0`"
b1000 e"
1B
b11111111111111111111111111111111 d"
0!
1]"
b0 ^"
1t
10
#670000
00
#675000
1W
1Y
0t
10
#680000
00
#685000
1%
1<
1S
0W
0Y
b100000 2"
b1000 b"
10
#690000
00
#695000
0#
0%
0<
0S
b1010 '
b1010 >
b1010 U
b1010 ,"
b1010 7"
b1 &
b1 ?
b1 T
b1 +"
b1 8"
b1 @"
1C
b10001 7
10
#700000
00
#705000
10
#710000
00
#715000
10
#720000
00
#725000
10
#730000
00
#735000
10
#740000
00
#745000
b0 w"
b10001 o"
b0 r"
b10000000000000000000000000000011 p"
10
#750000
00
#755000
10
#760000
00
#765000
10
#770000
00
#775000
10
#780000
00
#785000
b0 q"
10
