sim/waves/ooo_top.vcd
$date
	Sat Jun 13 20:48:52 2026
$end
$version
	Icarus Verilog
$end
$timescale
	1ps
$end
$scope module tb_ooo_top $end
$var wire 1 ! rs_full_w $end
$var wire 1 " rob_full_w $end
$var wire 1 # pipeline_busy $end
$var wire 1 $ instr_ready $end
$var wire 1 % commit_valid $end
$var wire 4 & commit_tag [3:0] $end
$var wire 5 ' commit_rd [4:0] $end
$var wire 32 ( commit_data [31:0] $end
$var reg 1 ) clk $end
$var reg 1 * flush $end
$var reg 32 + instr [31:0] $end
$var reg 1 , instr_valid $end
$var reg 1 - rst_n $end
$var integer 32 . errors [31:0] $end
$var integer 32 / si [31:0] $end
$var integer 32 0 total_commits [31:0] $end
$scope function enc $end
$var reg 3 1 op [2:0] $end
$var reg 5 2 rd [4:0] $end
$var reg 5 3 rs1 [4:0] $end
$var reg 5 4 rs2 [4:0] $end
$upscope $end
$scope module dut $end
$var wire 1 ) clk $end
$var wire 1 5 commit_ack $end
$var wire 32 6 commit_data [31:0] $end
$var wire 5 7 commit_rd [4:0] $end
$var wire 4 8 commit_tag [3:0] $end
$var wire 1 % commit_valid $end
$var wire 1 9 dispatch_en $end
$var wire 1 * flush $end
$var wire 32 : instr [31:0] $end
$var wire 1 $ instr_ready $end
$var wire 1 , instr_valid $end
$var wire 1 # pipeline_busy $end
$var wire 1 - rst_n $end
$var wire 1 ! rs_full $end
$var wire 1 ; rs_empty $end
$var wire 1 " rob_full $end
$var wire 1 < rob_empty_w $end
$var wire 4 = rat_rs2_tag [3:0] $end
$var wire 1 > rat_rs2_ready $end
$var wire 32 ? rat_rs2_data [31:0] $end
$var wire 4 @ rat_rs1_tag [3:0] $end
$var wire 1 A rat_rs1_ready $end
$var wire 32 B rat_rs1_data [31:0] $end
$var wire 1 C issue_valid_w $end
$var wire 4 D issue_tag_w [3:0] $end
$var wire 32 E issue_src2_w [31:0] $end
$var wire 32 F issue_src1_w [31:0] $end
$var wire 3 G issue_opcode_w [2:0] $end
$var wire 5 H dec_rs2 [4:0] $end
$var wire 5 I dec_rs1 [4:0] $end
$var wire 5 J dec_rd [4:0] $end
$var wire 3 K dec_opcode [2:0] $end
$var wire 1 L commit_valid_i $end
$var wire 4 M commit_tag_i [3:0] $end
$var wire 5 N commit_rd_i [4:0] $end
$var wire 32 O commit_data_i [31:0] $end
$var wire 1 P cdb_valid $end
$var wire 4 Q cdb_tag [3:0] $end
$var wire 1 R cdb_req_valid $end
$var wire 4 S cdb_req_tag [3:0] $end
$var wire 32 T cdb_req_data [31:0] $end
$var wire 32 U cdb_data [31:0] $end
$var wire 4 V alloc_tag [3:0] $end
$scope module u_alu $end
$var wire 1 ) clk $end
$var wire 1 * flush $end
$var wire 1 - rst_n $end
$var wire 32 W s1_src1_s [31:0] $end
$var wire 32 X s1_src2_s [31:0] $end
$var wire 64 Y mul_result [63:0] $end
$var wire 1 C issue_valid $end
$var wire 4 Z issue_tag [3:0] $end
$var wire 32 [ issue_src2 [31:0] $end
$var wire 32 \ issue_src1 [31:0] $end
$var wire 3 ] issue_opcode [2:0] $end
$var reg 32 ^ cdb_req_data [31:0] $end
$var reg 4 _ cdb_req_tag [3:0] $end
$var reg 1 R cdb_req_valid $end
$var reg 3 ` s1_opcode [2:0] $end
$var reg 32 a s1_src1 [31:0] $end
$var reg 32 b s1_src2 [31:0] $end
$var reg 4 c s1_tag [3:0] $end
$var reg 1 d s1_valid $end
$var reg 32 e s2_result_c [31:0] $end
$upscope $end
$scope module u_cdb $end
$var wire 32 f cdb_data [31:0] $end
$var wire 4 g cdb_tag [3:0] $end
$var wire 1 P cdb_valid $end
$var wire 32 h fu0_data [31:0] $end
$var wire 4 i fu0_tag [3:0] $end
$var wire 1 R fu0_valid $end
$upscope $end
$scope module u_rat $end
$var wire 32 j cdb_data [31:0] $end
$var wire 4 k cdb_tag [3:0] $end
$var wire 1 P cdb_valid $end
$var wire 1 ) clk $end
$var wire 1 * flush $end
$var wire 5 l rename_rd [4:0] $end
$var wire 1 9 rename_valid $end
$var wire 5 m rs1_addr [4:0] $end
$var wire 1 n rs1_cdb_hit $end
$var wire 1 A rs1_ready $end
$var wire 4 o rs1_tag [3:0] $end
$var wire 5 p rs2_addr [4:0] $end
$var wire 1 q rs2_cdb_hit $end
$var wire 1 > rs2_ready $end
$var wire 4 r rs2_tag [3:0] $end
$var wire 1 - rst_n $end
$var wire 32 s rs2_data [31:0] $end
$var wire 32 t rs1_data [31:0] $end
$var wire 4 u rename_tag [3:0] $end
$var wire 1 L commit_valid $end
$var wire 4 v commit_tag [3:0] $end
$var wire 5 w commit_rd [4:0] $end
$var wire 32 x commit_data [31:0] $end
$var integer 32 y r [31:0] $end
$upscope $end
$scope module u_rob $end
$var wire 3 z alloc_opcode [2:0] $end
$var wire 5 { alloc_rd [4:0] $end
$var wire 4 | alloc_tag [3:0] $end
$var wire 1 9 alloc_valid $end
$var wire 1 ) clk $end
$var wire 1 5 commit_ack $end
$var wire 32 } commit_data [31:0] $end
$var wire 5 ~ commit_rd [4:0] $end
$var wire 4 !" commit_tag [3:0] $end
$var wire 1 L commit_valid $end
$var wire 32 "" complete_data [31:0] $end
$var wire 4 #" complete_tag [3:0] $end
$var wire 1 P complete_valid $end
$var wire 1 * flush $end
$var wire 1 " rob_full $end
$var wire 1 - rst_n $end
$var wire 1 < rob_empty $end
$var reg 4 $" rob_head [3:0] $end
$var reg 4 %" rob_tail [3:0] $end
$var integer 32 &" r [31:0] $end
$upscope $end
$scope module u_rs $end
$var wire 32 '" cdb_data [31:0] $end
$var wire 4 (" cdb_tag [3:0] $end
$var wire 1 P cdb_valid $end
$var wire 1 ) clk $end
$var wire 4 )" dispatch_dest_tag [3:0] $end
$var wire 3 *" dispatch_opcode [2:0] $end
$var wire 5 +" dispatch_rd [4:0] $end
$var wire 5 ," dispatch_rs1 [4:0] $end
$var wire 5 -" dispatch_rs2 [4:0] $end
$var wire 32 ." dispatch_s1_data [31:0] $end
$var wire 1 A dispatch_s1_rdy $end
$var wire 4 /" dispatch_s1_tag [3:0] $end
$var wire 32 0" dispatch_s2_data [31:0] $end
$var wire 1 > dispatch_s2_rdy $end
$var wire 4 1" dispatch_s2_tag [3:0] $end
$var wire 1 9 dispatch_valid $end
$var wire 1 * flush $end
$var wire 1 2" fu_ready $end
$var wire 3 3" issue_opcode [2:0] $end
$var wire 4 4" issue_tag [3:0] $end
$var wire 1 C issue_valid $end
$var wire 1 - rst_n $end
$var wire 1 5" s1_via_cdb $end
$var wire 1 6" s2_via_cdb $end
$var wire 1 ! rs_full $end
$var wire 1 ; rs_empty $end
$var wire 32 7" issue_src2 [31:0] $end
$var wire 32 8" issue_src1 [31:0] $end
$var reg 8 9" dispatch_seq [7:0] $end
$var reg 1 :" free_found $end
$var reg 3 ;" free_idx [2:0] $end
$var reg 3 <" issue_idx [2:0] $end
$var reg 1 =" issue_valid_c $end
$var reg 8 >" min_seq [7:0] $end
$var reg 1 ; rs_empty_c $end
$var integer 32 ?" i [31:0] $end
$var integer 32 @" k [31:0] $end
$var integer 32 A" m [31:0] $end
$var integer 32 B" n [31:0] $end
$scope begin g_rdy[0] $end
$upscope $end
$scope begin g_rdy[1] $end
$upscope $end
$scope begin g_rdy[2] $end
$upscope $end
$scope begin g_rdy[3] $end
$upscope $end
$scope begin g_rdy[4] $end
$upscope $end
$scope begin g_rdy[5] $end
$upscope $end
$scope begin g_rdy[6] $end
$upscope $end
$scope begin g_rdy[7] $end
$upscope $end
$upscope $end
$upscope $end
$scope begin file_test $end
$var reg 32 C" encoded [31:0] $end
$var integer 32 D" c_before [31:0] $end
$var integer 32 E" fp [31:0] $end
$var integer 32 F" n_exp_commits [31:0] $end
$var integer 32 G" n_instr [31:0] $end
$var integer 32 H" op_i [31:0] $end
$var integer 32 I" rd_i [31:0] $end
$var integer 32 J" rs1_i [31:0] $end
$var integer 32 K" rs2_i [31:0] $end
$var integer 32 L" scan_ok [31:0] $end
$upscope $end
$scope begin flush_test $end
$var integer 32 M" c0 [31:0] $end
$upscope $end
$scope begin ipc_test $end
$var integer 32 N" c0 [31:0] $end
$var integer 32 O" end_cyc [31:0] $end
$var integer 32 P" num_i [31:0] $end
$var integer 32 Q" start_cyc [31:0] $end
$upscope $end
$scope begin raw_test $end
$var integer 32 R" c0 [31:0] $end
$upscope $end
$scope begin waw_test $end
$var integer 32 S" c0 [31:0] $end
$upscope $end
$scope task drain $end
$upscope $end
$scope task drive_instr $end
$var reg 32 T" i [31:0] $end
$upscope $end
$upscope $end
$enddefinitions $end
#0
$dumpvars
bx T"
bx S"
bx R"
bx Q"
bx P"
bx O"
bx N"
bx M"
bx L"
bx K"
bx J"
bx I"
bx H"
bx G"
bx F"
bx E"
bx D"
bx C"
bx B"
bx A"
bx @"
bx ?"
bx >"
x="
bx <"
bx ;"
x:"
bx 9"
bx 8"
bx 7"
x6"
x5"
bx 4"
bx 3"
12"
bx 1"
bx 0"
bx /"
bx ."
b0 -"
b0 ,"
b0 +"
b0 *"
bx )"
bx ("
bx '"
bx &"
bx %"
bx $"
bx #"
bx ""
bx !"
bx ~
bx }
bx |
b0 {
b0 z
bx y
bx x
bx w
bx v
bx u
bx t
bx s
bx r
xq
b0 p
bx o
xn
b0 m
b0 l
bx k
bx j
bx i
bx h
bx g
bx f
bx e
xd
bx c
bx b
bx a
bx `
bx _
bx ^
bx ]
bx \
bx [
bx Z
bx Y
bx X
bx W
bx V
bx U
bx T
bx S
xR
bx Q
xP
bx O
bx N
bx M
xL
b0 K
b0 J
b0 I
b0 H
bx G
bx F
bx E
bx D
xC
bx B
xA
bx @
bx ?
x>
bx =
x<
x;
b0 :
09
bx 8
bx 7
bx 6
x5
bx 4
bx 3
bx 2
bx 1
b0 0
b100000 /
b0 .
0-
0,
b0 +
0*
0)
bx (
bx '
bx &
x%
x$
x#
x"
x!
$end
#5000
0C
b0 F
b0 \
b0 8"
b0 E
b0 [
b0 7"
0#
1$
05"
06"
1A
1>
0n
0q
b1000 @"
b11111111 >"
0="
b0 G
b0 ]
b0 3"
b0 D
b0 Z
b0 4"
b0 <"
b1000 B"
1;
b11111111111111111111111111111111 A"
0!
1:"
b0 ;"
0%
05
0L
b0 e
b0 B
b0 t
b0 ."
b0 ?
b0 s
b0 0"
b0 @
b0 o
b0 /"
b0 =
b0 r
b0 1"
b0 9"
b0 (
b0 6
b0 O
b0 x
b0 }
b0 '
b0 7
b0 N
b0 w
b0 ~
0"
1<
b0 V
b0 u
b0 |
b0 )"
b0 %"
b0 &
b0 8
b0 M
b0 v
b0 !"
b0 $"
b0 c
b0 Y
b0 X
b0 b
b0 W
b0 a
b0 `
0d
b0 U
b0 f
b0 j
b0 ""
b0 '"
b0 T
b0 ^
b0 h
b0 Q
b0 g
b0 k
b0 #"
b0 ("
b0 S
b0 _
b0 i
0P
0R
b100000 y
b1000 ?"
b10000 &"
1)
#10000
0)
#15000
b10000 &"
b1000 ?"
b100000 y
1)
#20000
0)
#25000
b100000 y
b1000 ?"
b10000 &"
1)
#30000
0)
#35000
1-
b10000 &"
b1000 ?"
b100000 y
1)
#40000
0)
#45000
1)
#50000
0)
#55000
19
b1 J
b1 l
b1 {
b1 +"
1,
b1000000000000000000000000000 +
b1000000000000000000000000000 :
b1000000000000000000000000000 T"
b1 2
b0 3
b0 4
b0 1
b0 R"
1)
#60000
0)
#65000
1C
1="
b0 >"
b1000 @"
b11111111111111111111111111111111 A"
0!
1:"
b1 ;"
0;
b1000 B"
1#
b1 9"
b1 V
b1 u
b1 |
b1 )"
b1 %"
b1 '
b1 7
b1 N
b1 w
b1 ~
0"
0<
1)
#66000
0A
b10 J
b10 l
b10 {
b10 +"
b1 I
b1 m
b1 ,"
b10000010000000000000000000000 +
b10000010000000000000000000000 :
b10000010000000000000000000000 T"
b10 2
b1 3
1,
#70000
0)
#75000
0C
b1000 @"
b11111111 >"
0="
b1000 B"
0;
b11111111111111111111111111111111 A"
0!
1:"
b0 ;"
1d
b10 V
b10 u
b10 |
b10 )"
b10 %"
0"
b10 9"
1)
#76000
b11 J
b11 l
b11 {
b11 +"
b1 @
b1 o
b1 /"
b10 I
b10 m
b10 ,"
b11000100000000000000000000000 +
b11000100000000000000000000000 :
b11000100000000000000000000000 T"
b11 2
b10 3
1,
#80000
0)
#85000
15"
b1 <"
1C
1="
b1 >"
b1000 @"
b11111111111111111111111111111111 A"
0!
1:"
b10 ;"
b1000 B"
0;
b11 9"
b1 D
b1 Z
b1 4"
b11 V
b11 u
b11 |
b11 )"
b11 %"
0"
0d
1P
1R
1)
#86000
b100 J
b100 l
b100 {
b100 +"
b10 @
b10 o
b10 /"
b11 I
b11 m
b11 ,"
b100000110000000000000000000000 +
b100000110000000000000000000000 :
b100000110000000000000000000000 T"
b100 2
b11 3
1,
#90000
0)
#95000
0C
05"
1%
15
1L
b1000 @"
b11111111 >"
0="
b10 D
b10 Z
b10 4"
b0 <"
b1000 B"
0;
b11111111111111111111111111111111 A"
0!
1:"
b1 ;"
0P
0R
b1 c
1d
b100 V
b100 u
b100 |
b100 )"
b100 %"
0"
b100 9"
b1000 ?"
b100000 y
1)
#96000
b101 J
b101 l
b101 {
b101 +"
b11 @
b11 o
b11 /"
b100 I
b100 m
b100 ,"
b101001000000000000000000000000 +
b101001000000000000000000000000 :
b101001000000000000000000000000 T"
b101 2
b100 3
1,
#100000
0)
#105000
1C
1="
b10 D
b10 Z
b10 4"
b0 <"
b10 >"
b1000 @"
b11111111111111111111111111111111 A"
0!
1:"
b11 ;"
b1000 B"
0;
0%
05
0L
15"
b101 9"
b10 '
b10 7
b10 N
b10 w
b10 ~
b1 &
b1 8
b1 M
b1 v
b1 !"
b1 $"
0<
b101 V
b101 u
b101 |
b101 )"
b101 %"
0"
b10 c
0d
b1 Q
b1 g
b1 k
b1 #"
b1 ("
b1 S
b1 _
b1 i
1P
1R
b1 0
1)
#106000
09
0,
#110000
0)
#115000
b10 D
b10 Z
b10 4"
b0 <"
0C
b1000 @"
b11111111 >"
0="
05"
1%
15
1L
b1000 B"
0;
b11111111111111111111111111111111 A"
0!
1:"
b0 ;"
b10 Q
b10 g
b10 k
b10 #"
b10 ("
b10 S
b10 _
b10 i
0P
0R
1d
b1000 ?"
b100000 y
1)
#120000
0)
#125000
15"
1C
1="
b11 D
b11 Z
b11 4"
b10 <"
b11 >"
b1000 @"
0%
05
0L
b11 '
b11 7
b11 N
b11 w
b11 ~
b10 &
b10 8
b10 M
b10 v
b10 !"
b10 $"
0<
0d
1P
1R
b10 0
1)
#130000
0)
#135000
0C
b1000 @"
b11111111 >"
0="
b10 D
b10 Z
b10 4"
b0 <"
05"
1%
15
1L
b11111111111111111111111111111111 A"
0!
1:"
b0 ;"
b1000 B"
0;
0P
0R
b11 c
1d
b1000 ?"
b100000 y
1)
#140000
0)
#145000
15"
1C
1="
b100 D
b100 Z
b100 4"
b1 <"
b100 >"
b1000 @"
1A
0%
05
0L
1n
b100 '
b100 7
b100 N
b100 w
b100 ~
b11 &
b11 8
b11 M
b11 v
b11 !"
b11 $"
0<
b10 c
0d
b11 Q
b11 g
b11 k
b11 #"
b11 ("
b11 S
b11 _
b11 i
1P
1R
b11 0
1)
#150000
0)
#155000
0C
b1000 @"
b11111111 >"
0="
b10 D
b10 Z
b10 4"
b0 <"
0A
0n
05"
1%
15
1L
b1000 B"
1;
b11111111111111111111111111111111 A"
0!
1:"
b0 ;"
b10 Q
b10 g
b10 k
b10 #"
b10 ("
b10 S
b10 _
b10 i
0P
0R
b100 c
1d
b1000 ?"
b100000 y
1)
#160000
0)
#165000
1A
0%
05
0L
b101 '
b101 7
b101 N
b101 w
b101 ~
b100 &
b100 8
b100 M
b100 v
b100 !"
b100 $"
0<
b10 c
0d
b100 Q
b100 g
b100 k
b100 #"
b100 ("
b100 S
b100 _
b100 i
1P
1R
b100 0
1)
#170000
0)
#175000
1%
15
1L
b10 Q
b10 g
b10 k
b10 #"
b10 ("
b10 S
b10 _
b10 i
0P
0R
b1000 ?"
b100000 y
1)
#180000
0)
#185000
0#
0%
05
0L
b0 '
b0 7
b0 N
b0 w
b0 ~
b101 &
b101 8
b101 M
b101 v
b101 !"
b101 $"
1<
b101 0
1)
#190000
0)
#195000
1)
#200000
0)
#205000
1)
#210000
0)
#215000
1)
#220000
0)
#225000
1)
#230000
0)
#235000
19
b110 J
b110 l
b110 {
b110 +"
b0 @
b0 o
b0 /"
b0 I
b0 m
b0 ,"
1,
b110000000000000000000000000000 +
b110000000000000000000000000000 :
b110000000000000000000000000000 T"
b110 2
b0 3
b101 S"
1)
#240000
0)
#245000
1C
1="
b101 >"
b1000 @"
b11111111111111111111111111111111 A"
0!
1:"
b1 ;"
0;
b1000 B"
1#
b110 9"
b101 D
b101 Z
b101 4"
b110 V
b110 u
b110 |
b110 )"
b110 %"
b110 '
b110 7
b110 N
b110 w
b110 ~
0"
0<
1)
#246000
b1 K
b1 z
b1 *"
b110000000000000100000000000000 +
b110000000000000100000000000000 :
b110000000000000100000000000000 T"
b1 1
1,
#250000
0)
#255000
b1 G
b1 ]
b1 3"
b110 D
b110 Z
b110 4"
b1 <"
b1000 @"
b110 >"
1="
b1000 B"
0;
b11111111111111111111111111111111 A"
0!
1:"
b0 ;"
b101 c
1d
b111 V
b111 u
b111 |
b111 )"
b111 %"
0"
b111 9"
1)
#256000
0A
b111 J
b111 l
b111 {
b111 +"
b110 @
b110 o
b110 /"
b110 I
b110 m
b110 ,"
b0 K
b0 z
b0 *"
b111001100000000000000000000000 +
b111001100000000000000000000000 :
b111001100000000000000000000000 T"
b111 2
b110 3
b0 1
1,
#260000
0)
#265000
0C
b1000 @"
b11111111 >"
0="
b0 G
b0 ]
b0 3"
b111 D
b111 Z
b111 4"
b0 <"
b11111111111111111111111111111111 A"
0!
1:"
b1 ;"
b1000 B"
0;
b1000 9"
b1000 V
b1000 u
b1000 |
b1000 )"
b1000 %"
0"
b110 c
b1 `
b101 Q
b101 g
b101 k
b101 #"
b101 ("
b101 S
b101 _
b101 i
1P
1R
1)
#266000
09
0,
#270000
0)
#275000
1C
1="
b111 >"
b1000 @"
1A
1n
15"
1%
15
1L
b110 Q
b110 g
b110 k
b110 #"
b110 ("
b110 S
b110 _
b110 i
b111 c
b0 `
0d
b1000 ?"
b100000 y
1)
#280000
0)
#285000
0C
b1000 @"
b11111111 >"
0="
0A
b1000 B"
1;
b11111111111111111111111111111111 A"
0!
1:"
b0 ;"
0n
05"
b110 &
b110 8
b110 M
b110 v
b110 !"
b110 $"
0<
1d
b111 Q
b111 g
b111 k
b111 #"
b111 ("
b111 S
b111 _
b111 i
0P
0R
b100000 y
b1000 ?"
b110 0
1)
#290000
0)
#295000
0%
05
0L
1A
1P
1R
0d
b111 '
b111 7
b111 N
b111 w
b111 ~
b111 &
b111 8
b111 M
b111 v
b111 !"
b111 $"
0<
b111 0
1)
#300000
0)
#305000
1%
15
1L
0P
0R
b100000 y
b1000 ?"
1)
#310000
0)
#315000
0#
0%
05
0L
b0 '
b0 7
b0 N
b0 w
b0 ~
b1000 &
b1000 8
b1000 M
b1000 v
b1000 !"
b1000 $"
1<
b1000 0
1)
#320000
0)
#325000
1)
#330000
0)
#335000
1)
#340000
0)
#345000
1)
#350000
0)
#355000
1)
#360000
0)
#365000
19
b1000 J
b1000 l
b1000 {
b1000 +"
b0 @
b0 o
b0 /"
b0 I
b0 m
b0 ,"
1,
b1000000000000000000000000000000 +
b1000000000000000000000000000000 :
b1000000000000000000000000000000 T"
b1000 2
b0 3
b100100 Q"
b1000 N"
b1000 P"
1)
#370000
0)
#375000
1C
1="
b1000 >"
1#
b1000 @"
b11111111111111111111111111111111 A"
0!
1:"
b1 ;"
0;
b1000 B"
b1001 V
b1001 u
b1001 |
b1001 )"
b1001 %"
b1000 '
b1000 7
b1000 N
b1000 w
b1000 ~
0"
0<
b1001 9"
b1000 D
b1000 Z
b1000 4"
1)
#376000
1,
#380000
0)
#385000
b1001 D
b1001 Z
b1001 4"
b1 <"
b1000 @"
b1001 >"
1="
b1000 B"
0;
b11111111111111111111111111111111 A"
0!
1:"
b0 ;"
b1010 9"
b1010 V
b1010 u
b1010 |
b1010 )"
b1010 %"
0"
b1000 c
1d
1)
#386000
1,
#390000
0)
#395000
b1000 @"
b1010 >"
1="
b1010 D
b1010 Z
b1010 4"
b0 <"
b11111111111111111111111111111111 A"
0!
1:"
b1 ;"
b1000 B"
0;
b1000 Q
b1000 g
b1000 k
b1000 #"
b1000 ("
b1000 S
b1000 _
b1000 i
1P
1R
b1001 c
b1011 V
b1011 u
b1011 |
b1011 )"
b1011 %"
0"
b1011 9"
1)
#396000
1,
#400000
0)
#405000
b1011 D
b1011 Z
b1011 4"
b1 <"
b1000 @"
b1011 >"
1="
b1000 B"
0;
b11111111111111111111111111111111 A"
0!
1:"
b0 ;"
1%
15
1L
b1100 9"
b1100 V
b1100 u
b1100 |
b1100 )"
b1100 %"
0"
b1010 c
b1001 Q
b1001 g
b1001 k
b1001 #"
b1001 ("
b1001 S
b1001 _
b1001 i
b100000 y
b1000 ?"
1)
#406000
1,
#410000
0)
#415000
b1000 @"
b1100 >"
1="
b1100 D
b1100 Z
b1100 4"
b0 <"
b11111111111111111111111111111111 A"
0!
1:"
b1 ;"
b1000 B"
0;
b1010 Q
b1010 g
b1010 k
b1010 #"
b1010 ("
b1010 S
b1010 _
b1010 i
b1011 c
b1001 &
b1001 8
b1001 M
b1001 v
b1001 !"
b1001 $"
0<
b1101 V
b1101 u
b1101 |
b1101 )"
b1101 %"
0"
b1101 9"
b1001 0
b1000 ?"
b100000 y
1)
#416000
1,
#420000
0)
#425000
b1101 D
b1101 Z
b1101 4"
b1 <"
b1000 @"
b1101 >"
1="
b1000 B"
0;
b11111111111111111111111111111111 A"
0!
1:"
b0 ;"
b1110 9"
b1010 &
b1010 8
b1010 M
b1010 v
b1010 !"
b1010 $"
0<
b1110 V
b1110 u
b1110 |
b1110 )"
b1110 %"
0"
b1100 c
b1011 Q
b1011 g
b1011 k
b1011 #"
b1011 ("
b1011 S
b1011 _
b1011 i
b100000 y
b1000 ?"
b1010 0
1)
#426000
1,
#430000
0)
#435000
b1000 @"
b1110 >"
1="
b1110 D
b1110 Z
b1110 4"
b0 <"
b11111111111111111111111111111111 A"
0!
1:"
b1 ;"
b1000 B"
0;
b1100 Q
b1100 g
b1100 k
b1100 #"
b1100 ("
b1100 S
b1100 _
b1100 i
b1101 c
b1011 &
b1011 8
b1011 M
b1011 v
b1011 !"
b1011 $"
0<
b1111 V
b1111 u
b1111 |
b1111 )"
b1111 %"
0"
b1111 9"
b1011 0
b1000 ?"
b100000 y
1)
#436000
1,
#440000
0)
#445000
b1111 D
b1111 Z
b1111 4"
b1 <"
b1000 @"
b1111 >"
1="
b1000 B"
0;
b11111111111111111111111111111111 A"
0!
1:"
b0 ;"
b10000 9"
b1100 &
b1100 8
b1100 M
b1100 v
b1100 !"
b1100 $"
0<
b0 V
b0 u
b0 |
b0 )"
b0 %"
0"
b1110 c
b1101 Q
b1101 g
b1101 k
b1101 #"
b1101 ("
b1101 S
b1101 _
b1101 i
b100000 y
b1000 ?"
b1100 0
1)
#446000
09
0,
#450000
0)
#455000
0C
b1000 @"
b11111111 >"
0="
b1110 D
b1110 Z
b1110 4"
b0 <"
b11111111111111111111111111111111 A"
0!
1:"
b0 ;"
b1000 B"
1;
b1110 Q
b1110 g
b1110 k
b1110 #"
b1110 ("
b1110 S
b1110 _
b1110 i
b1111 c
b1101 &
b1101 8
b1101 M
b1101 v
b1101 !"
b1101 $"
0<
b1101 0
b1000 ?"
b100000 y
1)
#460000
0)
#465000
b1110 &
b1110 8
b1110 M
b1110 v
b1110 !"
b1110 $"
0<
b1110 c
0d
b1111 Q
b1111 g
b1111 k
b1111 #"
b1111 ("
b1111 S
b1111 _
b1111 i
b100000 y
b1000 ?"
b1110 0
1)
#470000
0)
#475000
b1110 Q
b1110 g
b1110 k
b1110 #"
b1110 ("
b1110 S
b1110 _
b1110 i
0P
0R
b1111 &
b1111 8
b1111 M
b1111 v
b1111 !"
b1111 $"
0<
b1111 0
b1000 ?"
b100000 y
1)
#480000
0)
#485000
0#
0%
05
0L
b1 '
b1 7
b1 N
b1 w
b1 ~
b0 &
b0 8
b0 M
b0 v
b0 !"
b0 $"
1<
b10000 0
1)
#490000
0)
#495000
1)
#500000
0)
#505000
1)
#510000
0)
#515000
1)
#520000
0)
#525000
1)
#530000
0)
#535000
19
b1001 J
b1001 l
b1001 {
b1001 +"
b1001000000000000000000000000000 +
b1001000000000000000000000000000 :
b1001 2
1,
b10000 M"
b110101 O"
1)
#540000
0)
#545000
1C
1="
b10000 >"
b1000 @"
0;
b1000 B"
b11111111111111111111111111111111 A"
0!
1:"
b1 ;"
1#
b10001 9"
b0 D
b0 Z
b0 4"
b1 V
b1 u
b1 |
b1 )"
b1 %"
b1001 '
b1001 7
b1001 N
b1001 w
b1001 ~
0"
0<
1)
#546000
b1010 J
b1010 l
b1010 {
b1010 +"
b10 K
b10 z
b10 *"
b1010000000000001000000000000000 +
b1010000000000001000000000000000 :
b1010 2
b10 1
#550000
0)
#555000
b10 G
b10 ]
b10 3"
b1 D
b1 Z
b1 4"
b1 <"
b1000 @"
b10001 >"
1="
b11111111111111111111111111111111 A"
0!
1:"
b0 ;"
b1000 B"
0;
b0 c
1d
b10 V
b10 u
b10 |
b10 )"
b10 %"
0"
b10010 9"
1)
#556000
09
1*
0,
#560000
0)
#565000
0C
b1000 @"
b11111111 >"
0="
b0 G
b0 ]
b0 3"
b0 D
b0 Z
b0 4"
b0 <"
0#
b1000 B"
1;
b11111111111111111111111111111111 A"
0!
1:"
b0 ;"
b0 9"
1<
0"
b0 V
b0 u
b0 |
b0 )"
b0 %"
0d
b0 Q
b0 g
b0 k
b0 #"
b0 ("
b0 S
b0 _
b0 i
b100000 y
b1000 ?"
b10000 &"
1)
#566000
0*
#570000
0)
#575000
1)
#580000
0)
#585000
1)
#590000
0)
#595000
1)
#600000
0)
#605000
1)
#610000
0)
#615000
1)
#620000
0)
#625000
1)
#630000
0)
#635000
1)
#640000
0)
#645000
19
b1011 J
b1011 l
b1011 {
b1011 +"
b0 K
b0 z
b0 *"
1,
b1011000000000000000000000000000 +
b1011000000000000000000000000000 :
b1011000000000000000000000000000 T"
b1011 2
b0 1
1)
#650000
0)
#655000
1C
1="
b0 >"
1#
b1000 @"
b11111111111111111111111111111111 A"
0!
1:"
b1 ;"
0;
b1000 B"
b1 V
b1 u
b1 |
b1 )"
b1 %"
b1011 '
b1011 7
b1011 N
b1011 w
b1011 ~
0"
0<
b1 9"
1)
#656000
09
0,
#660000
0)
#665000
0C
b1000 @"
b11111111 >"
0="
b1000 B"
1;
b11111111111111111111111111111111 A"
0!
1:"
b0 ;"
1d
1)
#670000
0)
#675000
1P
1R
0d
1)
#680000
0)
#685000
1%
15
1L
0P
0R
b100000 y
b1000 ?"
1)
#690000
0)
#695000
0#
0%
05
0L
b1010 '
b1010 7
b1010 N
b1010 w
b1010 ~
b1 &
b1 8
b1 M
b1 v
b1 !"
b1 $"
1<
b10001 0
1)
#700000
0)
#705000
1)
#710000
0)
#715000
1)
#720000
0)
#725000
1)
#730000
0)
#735000
1)
#740000
0)
#745000
b0 E"
1)
